<?xml version="1.0" encoding="UTF-8"?>
<svg width="15px" height="15px" viewBox="0 0 15 15" version="1.1" xmlns="http://www.w3.org/2000/svg" xmlns:xlink="http://www.w3.org/1999/xlink">
    <!-- Generator: Sketch 41.2 (35397) - http://www.bohemiancoding.com/sketch -->
    <title>settings copy 3</title>
    <desc>Created with Sketch.</desc>
    <defs></defs>
    <g id="PP/Pilot-Web-portfolio" stroke="none" stroke-width="1" fill="none" fill-rule="evenodd">
        <g id="PP/Mobile/Pilot-web-portfolio/share" transform="translate(-225.000000, -76.000000)" fill="#FFFFFF">
            <g id="settings-copy-3" transform="translate(225.000000, 76.000000)">
                <path d="M12.8544229,8.25 C12.8544229,8.025 12.9294229,7.8 12.9294229,7.5 C12.9294229,7.2 12.9294229,6.975 12.8544229,6.75 L14.4294229,5.475 C14.5794229,5.325 14.5794229,5.175 14.5044229,5.025 L13.0044229,2.4 C12.9294229,2.325 12.7794229,2.25 12.5544229,2.325 L10.6794229,3.075 C10.3044229,2.775 9.85442286,2.55 9.40442286,2.325 L9.10442286,0.375 C9.17942286,0.15 8.95442286,0 8.80442286,0 L5.80442286,0 C5.65442286,0 5.42942286,0.15 5.42942286,0.3 L5.12942286,2.325 C4.67942286,2.475 4.30442286,2.775 3.85442286,3.075 L2.05442286,2.325 C1.82942286,2.25 1.67942286,2.325 1.52942286,2.475 L0.0294228634,5.1 C-0.0455771366,5.175 0.0294228634,5.4 0.179422863,5.55 L1.75442286,6.75 C1.75442286,6.975 1.67942286,7.2 1.67942286,7.5 C1.67942286,7.8 1.67942286,8.025 1.75442286,8.25 L0.179422863,9.525 C0.0294228634,9.675 0.0294228634,9.825 0.104422863,9.975 L1.60442286,12.6 C1.67942286,12.675 1.82942286,12.75 2.05442286,12.675 L3.92942286,11.925 C4.30442286,12.225 4.75442286,12.45 5.20442286,12.675 L5.50442286,14.625 C5.50442286,14.775 5.65442286,14.925 5.87942286,14.925 L8.87942286,14.925 C9.02942286,14.925 9.25442286,14.775 9.25442286,14.625 L9.55442286,12.675 C10.0044229,12.45 10.4544229,12.225 10.8294229,11.925 L12.7044229,12.675 C12.8544229,12.75 13.0794229,12.675 13.1544229,12.525 L14.6544229,9.9 C14.7294229,9.75 14.7294229,9.525 14.5794229,9.45 L12.8544229,8.25 L12.8544229,8.25 Z M7.30442286,10.125 C5.87942286,10.125 4.67942286,8.925 4.67942286,7.5 C4.67942286,6.075 5.87942286,4.875 7.30442286,4.875 C8.72942286,4.875 9.92942286,6.075 9.92942286,7.5 C9.92942286,8.925 8.72942286,10.125 7.30442286,10.125 L7.30442286,10.125 Z" id="Shape"></path>
            </g>
        </g>
    </g>
</svg>